<?xml version="1.0" encoding="UTF-8" standalone="no"?>
<svg
   xmlns:dc="http://purl.org/dc/elements/1.1/"
   xmlns:cc="http://creativecommons.org/ns#"
   xmlns:rdf="http://www.w3.org/1999/02/22-rdf-syntax-ns#"
   xmlns:svg="http://www.w3.org/2000/svg"
   xmlns="http://www.w3.org/2000/svg"
   height="1352.2881"
   width="1352.2881"
   xml:space="preserve"
   viewBox="0 0 1352.2881 1352.2881"
   y="0px"
   x="0px"
   id="Layer_1"
   version="1.1"><metadata
   id="metadata13"><rdf:RDF><cc:Work
       rdf:about=""><dc:format>image/svg+xml</dc:format><dc:type
         rdf:resource="http://purl.org/dc/dcmitype/StillImage" /><dc:title></dc:title></cc:Work></rdf:RDF></metadata><defs
   id="defs11" />
<style
   id="style2"
   type="text/css">
	.st0{fill:#2B548A;}
	.st1{fill:#FFFFFF;}
	.st2{fill:url(#SVGID_1_);}
</style>
<circle
   r="676.14404"
   cy="676.14404"
   cx="676.14404"
   id="path4531"
   style="fill:#ffffff;fill-opacity:1;stroke:#000000;stroke-width:0;stroke-miterlimit:4;stroke-dasharray:none" /><path
   style="fill:#2b548a;fill-opacity:1"
   id="path4"
   d="m 676.19482,136.09424 c -120.9,0 -220.3,91.89923 -232,209.69923 h -1.20117 c -128.7,0 -233.09961,104.30156 -233.09961,233.10156 0,128.7 104.39961,233.09961 233.09961,233.09961 H 627.09326 L 616.89404,1033.895 c -30,-1.4 -70.6,-8.9 -111,-33 -20.5,-12.19997 -38.79922,-27.49997 -54.69922,-45.49997 l 13.89844,-5.40039 c 4.7,-1.8 8.10156,-5.90039 9.10156,-10.90039 0.9,-4.9 -0.70039,-10 -4.40039,-13.5 -14.6,-13.7 -28.20039,-28.6 -40.40039,-44.5 -9,-11.7 -17.30078,-23.9 -24.80078,-36.5 -2.7,-4.5 -7.49961,-7.19922 -12.59961,-7.19922 -0.7,0 -1.49883,0.0992 -2.29883,0.19922 -5.9,0.9 -10.7,5.29922 -12,11.19922 -5.1,22 -6.90117,44.40156 -5.20117,66.60156 3.2,42.6 18.1,72.69883 27,90.79887 28,56.6 65.80039,90 88.40039,110 14,12.3999 52.80039,44.3007 109.90039,71.3007 23.6,11.2 48.3,20.6004 73.5,27.9004 0.2,0.1 0.49883,0.099 0.79883,0.1992 1.4,0.4 2.70156,0.5996 4.10156,0.5996 1.7,0 3.29883,-0.2988 4.79883,-0.7988 25.2,-7.3 49.8,-16.6004 73.5,-27.9004 57.1,-27 95.90039,-58.8008 109.90039,-71.3007 22.6,-20 60.40039,-53.4 88.40039,-110 8.9,-18.00004 23.79961,-48.19887 27.09961,-90.79887 1.7,-22.2 -0.0992,-44.60156 -5.19922,-66.60156 -1.3,-5.9 -6.1,-10.29922 -12,-11.19922 -0.7,-0.1 -1.50078,-0.19922 -2.30078,-0.19922 -5.1,0 -9.89961,2.69922 -12.59961,7.19922 -7.5,12.6 -15.90078,24.9 -24.80078,36.5 -12.2,15.9 -25.80039,30.8 -40.40039,44.5 -3.7,3.5 -5.29844,8.6 -4.39844,13.5 1,5 4.39961,9.10039 9.09961,10.90039 l 13.90039,5.40039 c -15.9,18 -34.30117,33.3 -54.70117,45.49997 -40.4,24.2 -81,31.6 -111,33 L 725.29443,811.99464 h 184.09961 c 128.59996,0 232.99996,-104.29961 232.99996,-233.09961 0,-128.8 -104.3996,-233.20117 -233.09957,-233.20117 h -1.20117 c -11.7,-117.7 -111.09844,-209.59962 -231.89844,-209.59962 z m -0.10156,264.30079 c 39.6,0 71.80078,32.19883 71.80078,71.79883 0,26.3 -14.2,49.40039 -35.5,61.90039 l -1.30078,-30.30078 c 7.7,-8.4 12.40039,-19.59883 12.40039,-31.79883 0,-26.1 -21.19883,-47.30078 -47.29883,-47.30078 -26.1,0 -47.30078,21.20078 -47.30078,47.30078 0,1.1 -3.9e-4,2.19883 0.0996,3.29883 0,0.4 0.0996,0.90078 0.0996,1.30078 v 0.19922 c 0.1,1 0.20039,2.10156 0.40039,3.10156 v 0.19922 c 0.4,2.4 1.00078,4.79961 1.80078,7.09961 0.6,2 1.40039,3.90117 2.40039,5.70117 0.6,1.2 1.19844,2.29844 1.89844,3.39844 0,0 0.002,0.10117 0.10156,0.20117 0.3,0.6 0.69922,1.19883 1.19922,1.79883 0.4,0.6 0.80078,1.30039 1.30078,1.90039 0.5,0.6 0.89844,1.20078 1.39844,1.80078 0.5,0.6 1.00156,1.19883 1.60156,1.79883 2,2.3 4.29922,4.30156 6.69922,6.10156 0.1,0.1 0.20039,0.19883 0.40039,0.29883 0.5,0.3 1,0.7 1.5,1 0.6,0.4 1.20039,0.90117 1.90039,1.20117 1.1,0.6 2.09922,1.19883 3.19922,1.79883 0.2,0.1 0.39961,0.20117 0.59961,0.20117 l 1.30078,-28.20117 H 676.1948 V 1201.395 c -4.6,-1.3 -9.50117,-2.8 -14.70117,-4.5 -16.7,-5.4 -36.20039,-12.7008 -57.40039,-22.8008 -59.9,-28.3 -98.2,-61.6 -106.5,-69 -23.4,-20.8 -58.69844,-52.6 -84.89844,-105.49995 -9.3,-18.7 -22.70156,-46.40078 -25.60156,-85.30078 -2,-26 1.50078,-47.69883 4.80078,-62.29883 7,11.9 15.59922,24.7 25.69922,38 14.3,18.6 28.80156,33.89883 42.10156,46.29883 -10.9,4.3 -21.80117,8.50117 -32.70117,12.70117 13.5,18 36.30078,43.5 71.30078,64.49996 50.8,30.4 100.79883,35.4004 130.29883,35.4004 h 2.30078 l 10.8008,-236.80075 7,-154 h -80.70117 l 9.80078,-31.80078 h 72.40039 l 3.89844,-85.89844 c -0.4,-0.1 -0.89844,-0.3 -1.39844,-0.5 -1,-0.3 -1.90078,-0.6 -2.80078,-1 -1,-0.3 -2,-0.80117 -3,-1.20117 -2.5,-1.1 -4.89922,-2.29922 -7.19922,-3.69922 l -0.60156,-0.30078 c -0.1,0 -0.19883,-0.0992 -0.29883,-0.19922 -1.2,-0.7 -2.40117,-1.60078 -3.70117,-2.30078 -1.2,-0.9 -2.29844,-1.69961 -3.39844,-2.59961 l -3.30078,-2.69922 c 0,0 3.9e-4,-0.1 -0.0996,0 -0.8,-0.7 -1.60078,-1.50117 -2.30078,-2.20117 -0.7,-0.8 -1.49883,-1.49883 -2.29883,-2.29883 -1.4,-1.6 -2.80117,-3.20039 -4.20117,-4.90039 -0.9,-1.1 -1.8,-2.30039 -2.5,-3.40039 -0.8,-1.2 -1.59883,-2.39961 -2.29883,-3.59961 -0.1,0 -0.10156,-0.10117 -0.10156,-0.20117 -0.5,-0.9 -0.99961,-1.89883 -1.59961,-2.79883 -1.1,-2 -2.00039,-3.9 -2.90039,-6 -1.5,-3.3 -2.6,-6.80078 -3.5,-10.30078 -0.3,-1.2 -0.49883,-2.3 -0.79883,-3.5 -0.5,-2.3 -0.79961,-4.69961 -1.09961,-7.09961 -0.1,-1.2 -0.20078,-2.39922 -0.30078,-3.69922 0,-1.2 -0.0996,-2.40117 -0.0996,-3.70117 0,-39.6 32.19883,-71.79883 71.79883,-71.79883 z m 40.70117,225.79883 h 72.40039 l 9.79883,31.80078 h -80.79883 c -0.4,-10.2 -0.90039,-20.80078 -1.40039,-31.80078 z" />

</svg>
